<?xml version="1.0" encoding="UTF-8"?>
<glyph name="Q" format="1">
  <advance width="750"/>
  <unicode hex="0051"/>
  <outline>
    <contour>
      <point x="700" y="0" type="line"/>
      <point x="325" y="0" type="line" smooth="yes"/>
      <point x="191" y="0"/>
      <point x="0" y="191"/>
      <point x="0" y="325" type="qcurve" smooth="yes"/>
      <point x="0" y="459"/>
      <point x="191" y="650"/>
      <point x="325" y="650" type="qcurve" smooth="yes"/>
      <point x="459" y="650"/>
      <point x="650" y="459"/>
      <point x="650" y="325" type="qcurve" smooth="yes"/>
      <point x="650" y="260"/>
      <point x="625" y="200" type="qcurve"/>
      <point x="700" y="200" type="line"/>
    </contour>
    <contour>
      <point x="450" y="325" type="qcurve" smooth="yes"/>
      <point x="450" y="377"/>
      <point x="377" y="450"/>
      <point x="325" y="450" type="qcurve" smooth="yes"/>
      <point x="274" y="450"/>
      <point x="200" y="376"/>
      <point x="200" y="325" type="qcurve" smooth="yes"/>
      <point x="200" y="273"/>
      <point x="273" y="200"/>
      <point x="325" y="200" type="qcurve" smooth="yes"/>
      <point x="377" y="200"/>
      <point x="450" y="273"/>
    </contour>
  </outline>
</glyph>
